4
1
2
16 19 3 10 0 -1
16 19 3 5 0 2
tilted_haar_y2
-4.739331e-002 0 -1
7.991243e-001 -5.089368e-001 
1
2
3 4 27 4 0 -1
3 6 27 2 0 2
haar_y2
-1.959230e-002 0 -1
6.375641e-001 -4.857094e-001 
1
2
2 12 6 9 0 -1
2 15 6 3 0 3
haar_y3
-1.326687e-004 0 -1
3.385780e-001 -9.008461e-001 
1
2
27 19 5 4 0 -1
27 19 5 2 0 2
tilted_haar_x2
-1.345962e-003 0 -1
-5.366063e-001 2.060246e-001 
-4.500436e-001

5
-1
