^F:\VAROZA_DETECT\VAROZA\VAROZA\X64\DEBUG\STDAFX.OBJ|F:\VAROZA_DETECT\VAROZA\VAROZA\X64\DEBUG\VAROZA.OBJ
F:\VAROZA_DETECT\VAROZA\X64\DEBUG\VAROZA.ILK
F:\VAROZA_DETECT\VAROZA\X64\DEBUG\VAROZA.EXE
F:\VAROZA_DETECT\VAROZA\X64\DEBUG\VAROZA.PDB
