rawdata/1.bmp 4 236 183 150 152 241 192 137 139 232 180 157 161 216 167 190 192
rawdata/10.bmp 11 47 74 75 79 48 81 69 69 39 62 91 103 740 589 101 103 732 600 99 97 732 588 117 111 745 599 92 77 756 592 83 79 269 705 92 77 272 698 91 83 265 689 103 103
rawdata/11.bmp 5 787 386 64 72 787 392 64 69 775 368 90 99 89 97 67 70 83 98 78 72
rawdata/12.bmp 5 478 421 181 199 493 450 152 156 447 409 239 243 459 418 224 224 497 450 150 156
rawdata/13.bmp 4 180 207 106 107 181 200 104 114 179 203 114 116 188 216 100 95
rawdata/15.bmp 5 152 160 158 193 139 177 198 177 122 142 223 219 154 177 158 178 131 182 209 179
rawdata/16.bmp 4 126 175 167 152 123 171 176 164 114 174 179 171 121 161 174 176
rawdata/17.bmp 4 177 161 155 184 167 169 172 177 144 162 201 194 143 169 199 184
rawdata/19.bmp 2 105 125 96 91 111 136 91 84
rawdata/20.bmp 41 65 91 88 75 110 32 64 64 169 30 66 65 402 75 77 63 466 47 53 57 557 74 69 67 747 97 52 55 788 102 60 62 652 232 61 63 767 271 76 74 899 285 68 62 246 315 70 73 175 379 69 64 234 393 77 72 7 480 61 66 234 495 58 66 286 497 63 69 453 513 56 71 475 501 57 56 570 429 64 67 675 404 70 65 712 454 73 67 846 522 74 71 776 280 64 68 902 283 62 66 953 497 49 72 787 102 59 58 741 102 63 45 566 76 62 64 411 83 63 56 464 51 57 54 389 367 59 61 487 362 65 58 573 435 55 61 619 368 62 52 588 377 64 65 674 403 79 70 719 457 60 63 856 520 65 58 72 106 68 55 114 34 58 57
rawdata/22.bmp 4 38 105 35 34 10 177 37 34 336 164 30 35 383 207 25 22
rawdata/23.bmp 4 170 156 230 241 165 169 235 227 166 176 240 229 171 162 228 236
rawdata/24.bmp 2 289 191 113 120 279 203 136 136
rawdata/25.bmp 6 80 102 169 205 63 121 209 198 50 113 214 217 328 90 205 222 350 118 187 192 346 116 188 182
rawdata/26.bmp 4 135 56 134 139 133 50 133 147 401 71 154 162 396 79 167 156
rawdata/27.bmp 3 177 100 180 174 205 117 146 135 189 113 167 163
rawdata/28.bmp 1 2 1 54 60
rawdata/29.bmp 1 0 1 59 65
rawdata/4.bmp 2 220 132 174 175 230 154 144 159
rawdata/5.bmp 1 215 143 175 179
rawdata/6.bmp 5 221 282 222 216 252 300 192 203 245 297 203 207 230 277 227 235 245 294 179 190
rawdata/7.bmp 3 175 226 191 152 196 212 160 170 191 193 182 188
rawdata/8.bmp 5 331 221 161 172 330 235 153 152 329 225 162 168 336 254 139 131 325 248 146 139
