n1 - Copy (2) - Copy.bmp
n1 - Copy (2).bmp
n1 - Copy (3) - Copy.bmp
n1 - Copy (3).bmp
n1 - Copy (4) - Copy.bmp
n1 - Copy (4).bmp
n1 - Copy (5).bmp
n1 - Copy - Copy.bmp
n1 - Copy.bmp
n1.bmp
n10 - Copy (2) - Copy.bmp
n10 - Copy (2).bmp
n10 - Copy (3) - Copy.bmp
n10 - Copy (3).bmp
n10 - Copy (4) - Copy.bmp
n10 - Copy (4).bmp
n10 - Copy (5).bmp
n10 - Copy - Copy.bmp
n10 - Copy.bmp
n10.bmp
n11 - Copy (2) - Copy.bmp
n11 - Copy (2).bmp
n11 - Copy (3) - Copy.bmp
n11 - Copy (3).bmp
n11 - Copy (4) - Copy.bmp
n11 - Copy (4).bmp
n11 - Copy (5).bmp
n11 - Copy - Copy.bmp
n11 - Copy.bmp
n11.bmp
n12 - Copy (2) - Copy.bmp
n12 - Copy (2).bmp
n12 - Copy (3) - Copy.bmp
n12 - Copy (3).bmp
n12 - Copy (4) - Copy.bmp
n12 - Copy (4).bmp
n12 - Copy (5).bmp
n12 - Copy - Copy.bmp
n12 - Copy.bmp
n12.bmp
n13 - Copy (2) - Copy.bmp
n13 - Copy (2).bmp
n13 - Copy (3) - Copy.bmp
n13 - Copy (3).bmp
n13 - Copy (4) - Copy.bmp
n13 - Copy (4).bmp
n13 - Copy (5).bmp
n13 - Copy - Copy.bmp
n13 - Copy.bmp
n13.bmp
n14 - Copy (2) - Copy.bmp
n14 - Copy (2).bmp
n14 - Copy (3) - Copy.bmp
n14 - Copy (3).bmp
n14 - Copy (4) - Copy.bmp
n14 - Copy (4).bmp
n14 - Copy (5).bmp
n14 - Copy - Copy.bmp
n14 - Copy.bmp
n14.bmp
n15 - Copy (2) - Copy.bmp
n15 - Copy (2).bmp
n15 - Copy (3) - Copy.bmp
n15 - Copy (3).bmp
n15 - Copy (4) - Copy.bmp
n15 - Copy (4).bmp
n15 - Copy (5).bmp
n15 - Copy - Copy.bmp
n15 - Copy.bmp
n15.bmp
n16 - Copy (2) - Copy.bmp
n16 - Copy (2).bmp
n16 - Copy (3) - Copy.bmp
n16 - Copy (3).bmp
n16 - Copy (4) - Copy.bmp
n16 - Copy (4).bmp
n16 - Copy (5).bmp
n16 - Copy - Copy.bmp
n16 - Copy.bmp
n16.bmp
n17 - Copy (2) - Copy.bmp
n17 - Copy (2).bmp
n17 - Copy (3) - Copy.bmp
n17 - Copy (3).bmp
n17 - Copy (4) - Copy.bmp
n17 - Copy (4).bmp
n17 - Copy (5).bmp
n17 - Copy - Copy.bmp
n17 - Copy.bmp
n17.bmp
n18 - Copy (2) - Copy.bmp
n18 - Copy (2).bmp
n18 - Copy (3) - Copy.bmp
n18 - Copy (3).bmp
n18 - Copy (4) - Copy.bmp
n18 - Copy (4).bmp
n18 - Copy (5).bmp
n18 - Copy - Copy.bmp
n18 - Copy.bmp
n18.bmp
n19 - Copy (2) - Copy.bmp
n19 - Copy (2).bmp
n19 - Copy (3) - Copy.bmp
n19 - Copy (3).bmp
n19 - Copy (4) - Copy.bmp
n19 - Copy (4).bmp
n19 - Copy (5).bmp
n19 - Copy - Copy.bmp
n19 - Copy.bmp
n19.bmp
n2 - Copy (2) - Copy.bmp
n2 - Copy (2).bmp
n2 - Copy (3) - Copy.bmp
n2 - Copy (3).bmp
n2 - Copy (4) - Copy.bmp
n2 - Copy (4).bmp
n2 - Copy (5).bmp
n2 - Copy - Copy.bmp
n2 - Copy.bmp
n2.bmp
n20 - Copy (2) - Copy.bmp
n20 - Copy (2).bmp
n20 - Copy (3) - Copy.bmp
n20 - Copy (3).bmp
n20 - Copy (4) - Copy.bmp
n20 - Copy (4).bmp
n20 - Copy (5).bmp
n20 - Copy - Copy.bmp
n20 - Copy.bmp
n20.bmp
n21 - Copy (2) - Copy.bmp
n21 - Copy (2).bmp
n21 - Copy (3) - Copy.bmp
n21 - Copy (3).bmp
n21 - Copy (4) - Copy.bmp
n21 - Copy (4).bmp
n21 - Copy (5).bmp
n21 - Copy - Copy.bmp
n21 - Copy.bmp
n21.bmp
n22 - Copy (2) - Copy.bmp
n22 - Copy (2).bmp
n22 - Copy (3) - Copy.bmp
n22 - Copy (3).bmp
n22 - Copy (4) - Copy.bmp
n22 - Copy (4).bmp
n22 - Copy (5).bmp
n22 - Copy - Copy.bmp
n22 - Copy.bmp
n22.bmp
n23 - Copy (2) - Copy.bmp
n23 - Copy (2).bmp
n23 - Copy (3) - Copy.bmp
n23 - Copy (3).bmp
n23 - Copy (4) - Copy.bmp
n23 - Copy (4).bmp
n23 - Copy (5).bmp
n23 - Copy - Copy.bmp
n23 - Copy.bmp
n23.bmp
n24 - Copy (2) - Copy.bmp
n24 - Copy (2).bmp
n24 - Copy (3) - Copy.bmp
n24 - Copy (3).bmp
n24 - Copy (4) - Copy.bmp
n24 - Copy (4).bmp
n24 - Copy (5).bmp
n24 - Copy - Copy.bmp
n24 - Copy.bmp
n24.bmp
n25 - Copy (2) - Copy.bmp
n25 - Copy (2).bmp
n25 - Copy (3) - Copy.bmp
n25 - Copy (3).bmp
n25 - Copy (4) - Copy.bmp
n25 - Copy (4).bmp
n25 - Copy (5).bmp
n25 - Copy - Copy.bmp
n25 - Copy.bmp
n25.bmp
n26 - Copy (2) - Copy.bmp
n26 - Copy (2).bmp
n26 - Copy (3) - Copy.bmp
n26 - Copy (3).bmp
n26 - Copy (4) - Copy.bmp
n26 - Copy (4).bmp
n26 - Copy (5).bmp
n26 - Copy - Copy.bmp
n26 - Copy.bmp
n26.bmp
n27 - Copy (2) - Copy.bmp
n27 - Copy (2).bmp
n27 - Copy (3) - Copy.bmp
n27 - Copy (3).bmp
n27 - Copy (4) - Copy.bmp
n27 - Copy (4).bmp
n27 - Copy (5).bmp
n27 - Copy - Copy.bmp
n27 - Copy.bmp
n27.bmp
n3 - Copy (2) - Copy.bmp
n3 - Copy (2).bmp
n3 - Copy (3) - Copy.bmp
n3 - Copy (3).bmp
n3 - Copy (4) - Copy.bmp
n3 - Copy (4).bmp
n3 - Copy (5).bmp
n3 - Copy - Copy.bmp
n3 - Copy.bmp
n3.bmp
n4 - Copy (2) - Copy.bmp
n4 - Copy (2).bmp
n4 - Copy (3) - Copy.bmp
n4 - Copy (3).bmp
n4 - Copy (4) - Copy.bmp
n4 - Copy (4).bmp
n4 - Copy (5).bmp
n4 - Copy - Copy.bmp
n4 - Copy.bmp
n4.bmp
n5 - Copy (2) - Copy.bmp
n5 - Copy (2).bmp
n5 - Copy (3) - Copy.bmp
n5 - Copy (3).bmp
n5 - Copy (4) - Copy.bmp
n5 - Copy (4).bmp
n5 - Copy (5).bmp
n5 - Copy - Copy.bmp
n5 - Copy.bmp
n5.bmp
n6 - Copy (2) - Copy.bmp
n6 - Copy (2).bmp
n6 - Copy (3) - Copy.bmp
n6 - Copy (3).bmp
n6 - Copy (4) - Copy.bmp
n6 - Copy (4).bmp
n6 - Copy (5).bmp
n6 - Copy - Copy.bmp
n6 - Copy.bmp
n6.bmp
n7 - Copy (2) - Copy.bmp
n7 - Copy (2).bmp
n7 - Copy (3) - Copy.bmp
n7 - Copy (3).bmp
n7 - Copy (4) - Copy.bmp
n7 - Copy (4).bmp
n7 - Copy (5).bmp
n7 - Copy - Copy.bmp
n7 - Copy.bmp
n7.bmp
n8 - Copy (2) - Copy.bmp
n8 - Copy (2).bmp
n8 - Copy (3) - Copy.bmp
n8 - Copy (3).bmp
n8 - Copy (4) - Copy.bmp
n8 - Copy (4).bmp
n8 - Copy (5).bmp
n8 - Copy - Copy.bmp
n8 - Copy.bmp
n8.bmp
n9 - Copy (2) - Copy.bmp
n9 - Copy (2).bmp
n9 - Copy (3) - Copy.bmp
n9 - Copy (3).bmp
n9 - Copy (4) - Copy.bmp
n9 - Copy (4).bmp
n9 - Copy (5).bmp
n9 - Copy - Copy.bmp
n9 - Copy.bmp
n9.bmp
