3
1
2
1 26 16 6 0 -1
5 26 8 6 0 2
haar_x4
-4.492163e-003 0 -1
-1.000000e+000 2.961019e-001 
1
2
17 11 6 3 0 -1
16 12 6 1 0 3
tilted_haar_x3
-3.348514e-003 0 -1
-7.875432e-001 2.071009e-002 
1
2
15 11 3 6 0 -1
16 12 1 6 0 3
tilted_haar_x3
-3.046780e-004 0 -1
4.196991e-001 -7.466846e-001 
-4.298726e-001

9
-1
