3
1
2
11 0 21 11 0 -1
18 7 7 11 0 3
tilted_haar_x3
-3.197857e-001 0 -1
8.345581e-001 -7.472740e-001 
1
2
5 0 27 23 0 -1
14 0 9 23 0 3
haar_x3
2.594821e-002 0 -1
-6.849566e-002 7.114517e-001 
1
2
0 0 27 23 0 -1
9 0 9 23 0 3
haar_x3
-2.369481e-001 0 -1
6.498378e-001 -8.778692e-001 
-1.659319e-001

1
-1
