3
1
2
16 6 12 3 0 -1
20 10 4 3 0 3
tilted_haar_x3
-1.198978e-002 0 -1
2.681063e-001 -9.999931e-001 
1
3
13 11 6 12 0 -1
16 11 3 6 0 2
13 17 3 6 0 2
haar_x2_y2
-6.366611e-003 0 -1
-9.025279e-001 2.836755e-001 
1
2
4 26 2 4 0 -1
4 26 1 4 0 2
tilted_haar_x2
6.827286e-004 0 -1
2.469984e-001 -9.016709e-001 
-3.874231e-001

12
-1
